Lab 2/Lab2_Vivado/lab2/.Xil/Vivado-21324-CEAT-ENDV350-03/hw_ila_data_1/zip_work/waveform.vcd
$date
        2026-Apr-01 13:59:31
$end
$version
        Vivado v2023.2 (64-bit)
$end
$timescale
        1ps
$end
$scope module dut $end
$var reg 32 " design_1_i/top_0/inst/PC [31:0] $end
$var reg 32 B design_1_i/top_0/inst/writeDataM [31:0] $end
$var reg 32 b design_1_i/top_0/inst/Instr [31:0] $end
$var reg 32 $" design_1_i/top_0/inst/addressM [31:0] $end
$var reg 32 D" design_1_i/top_0/inst/readDataM [31:0] $end
$var reg 1 d" design_1_i/top_0/inst/reset $end
$var reg 1 e" _TRIGGER $end
$var reg 1 f" _WINDOW $end
$var reg 1 g" _GAP $end
$upscope $end
$enddefinitions $end
#0
$dumpvars
b0 "
b0 B
b10000010000000000111010010011 b
b100000100 $"
b0 D"
1d"
0e"
1f"
0g"
$end
#512
0d"
1e"
#513
b100 "
b10011000000000111000010011 b
b100110 $"
#514
b1000 "
b1110010011 b
b0 $"
#515
b1100 "
b100000000001100010011 b
b1 $"
#516
b10000 "
b1010010011 b
b0 $"
#517
b10100 "
b11100000110001100011 b
b100110 $"
#518
b11000 "
b10100110000001110110011 b
b1 $"
#519
b11100 "
b110000001010010011 b
#520
b100000 "
b111000001100010011 b
#521
b100100 "
b11111111111111100000111000010011 b
b100101 $"
#522
b101000 "
b11111110110111111111000001101111 b
b11111111111111111111111111101100 $"
#523
b11111111111111111111111111101100 "
b1 B
b10111101010000000100011 b
b100000100 $"
#555
b11111111111111111111111111110000 "
b11011101010001000100011 b
b100001000 $"
#587
b11111111111111111111111111110100 "
b0 B
b11101010010100000011 b
b100000100 $"
#619
b1 D"
#622
b11111111111111111111111111111000 "
b1110011 b
b0 $"
